{
  "tags": [
    {
      "id": 1,
      "label": "youpi"
    },
    {
      "id": 2,
      "label": "web"
    },
    {
      "id": 3,
      "label": "travail"
    },
    {
      "id": 5,
      "label": "EZPZ"
    },
    {
      "id": 6,
      "label": "Java"
    },
    {
      "id": 7,
      "label": "à faire absolument"
    },
    {
      "id": 10,
      "label": "plus si important"
    }
  ]
}